src/V3/alu_tb.vcd
$date
	Wed Jan 21 16:27:41 2026
$end
$version
	Icarus Verilog
$end
$timescale
	1ps
$end
$scope module ALU_tb $end
$var wire 32 ! o_res [31:0] $end
$var wire 1 " o_res_vld $end
$var wire 1 # overflow $end
$var reg 1 $ ALUctrl $end
$var reg 1 % clk $end
$var integer 32 & cycle_count [31:0] $end
$var integer 32 ' fail_count [31:0] $end
$var reg 32 ( i_a [31:0] $end
$var reg 32 ) i_b [31:0] $end
$var reg 1 * i_vld $end
$var integer 32 + pass_count [31:0] $end
$var reg 1 , rst $end
$var integer 32 - test_count [31:0] $end
$scope module dut $end
$var wire 1 . add_ovf $end
$var wire 32 / add_res [31:0] $end
$var wire 1 0 add_vld $end
$var wire 1 1 clk $end
$var wire 32 2 i_a [31:0] $end
$var wire 32 3 i_b [31:0] $end
$var wire 1 4 i_vld $end
$var wire 1 5 mul_ovf $end
$var wire 32 6 mul_res [31:0] $end
$var wire 1 7 mul_vld $end
$var wire 1 8 opcode $end
$var wire 1 9 rst $end
$var reg 32 : i_a_stage1 [31:0] $end
$var reg 32 ; i_b_stage1 [31:0] $end
$var reg 1 < i_vld_stage1 $end
$var reg 32 = o_res [31:0] $end
$var reg 1 > o_res_vld $end
$var reg 1 ? opcode_stage1 $end
$var reg 1 @ overflow $end
$scope module adder_inst $end
$var wire 1 1 clk $end
$var wire 8 A exp_a [7:0] $end
$var wire 8 B exp_b [7:0] $end
$var wire 8 C exp_diff [7:0] $end
$var wire 8 D exp_larger [7:0] $end
$var wire 32 E i_a [31:0] $end
$var wire 32 F i_b [31:0] $end
$var wire 1 G i_vld $end
$var wire 1 H is_inf_a $end
$var wire 1 I is_inf_b $end
$var wire 1 J is_nan_a $end
$var wire 1 K is_nan_b $end
$var wire 1 L is_zero_a $end
$var wire 1 M is_zero_b $end
$var wire 24 N man_a [23:0] $end
$var wire 24 O man_a_aligned [23:0] $end
$var wire 24 P man_b [23:0] $end
$var wire 24 Q man_b_aligned [23:0] $end
$var wire 1 R op_add_sub $end
$var wire 1 9 rst $end
$var wire 8 S shift_amt [7:0] $end
$var wire 1 T sign_a $end
$var wire 1 U sign_b $end
$var wire 1 V sign_sum $end
$var wire 25 W sum_raw [24:0] $end
$var reg 8 X exp_a_r [7:0] $end
$var reg 8 Y exp_b_r [7:0] $end
$var reg 8 Z exp_larger_r [7:0] $end
$var reg 8 [ exp_norm [7:0] $end
$var reg 1 \ i_vld_r $end
$var reg 1 ] i_vld_r2 $end
$var reg 1 ^ is_inf_a_r $end
$var reg 1 _ is_inf_b_r $end
$var reg 1 ` is_inf_r $end
$var reg 1 a is_nan_a_r $end
$var reg 1 b is_nan_b_r $end
$var reg 1 c is_nan_r $end
$var reg 1 d is_zero_a_r $end
$var reg 1 e is_zero_b_r $end
$var reg 1 f is_zero_r $end
$var reg 24 g man_a_r [23:0] $end
$var reg 24 h man_b_r [23:0] $end
$var reg 24 i man_norm [23:0] $end
$var reg 32 j o_res [31:0] $end
$var reg 1 k o_res_vld $end
$var reg 1 l overflow $end
$var reg 1 m overflow_norm $end
$var reg 1 n sign_a_r $end
$var reg 1 o sign_b_r $end
$var reg 1 p sign_sum_r $end
$var reg 25 q sum_raw_r [24:0] $end
$upscope $end
$scope module multiplier_inst $end
$var wire 1 r carry_round $end
$var wire 1 1 clk $end
$var wire 8 s exp_a [7:0] $end
$var wire 8 t exp_b [7:0] $end
$var wire 8 u exp_calc [7:0] $end
$var wire 8 v exp_final [7:0] $end
$var wire 8 w exp_raw [7:0] $end
$var wire 1 x guard_bit $end
$var wire 32 y i_a [31:0] $end
$var wire 32 z i_b [31:0] $end
$var wire 1 G i_vld $end
$var wire 1 { is_inf_a $end
$var wire 1 | is_inf_b $end
$var wire 1 } is_nan_a $end
$var wire 1 ~ is_nan_b $end
$var wire 1 !" is_zero_a $end
$var wire 1 "" is_zero_b $end
$var wire 24 #" man_a [23:0] $end
$var wire 24 $" man_b [23:0] $end
$var wire 23 %" man_final [22:0] $end
$var wire 24 &" man_rounded [23:0] $end
$var wire 1 '" overflow_calc $end
$var wire 1 (" product_msb $end
$var wire 48 )" product_raw [47:0] $end
$var wire 48 *" product_shifted [47:0] $end
$var wire 1 +" round_up $end
$var wire 1 9 rst $end
$var wire 1 ," sign_a $end
$var wire 1 -" sign_b $end
$var wire 1 ." sign_res $end
$var wire 1 /" sticky_bit $end
$var reg 8 0" exp_a_r [7:0] $end
$var reg 8 1" exp_b_r [7:0] $end
$var reg 8 2" exp_final_r [7:0] $end
$var reg 1 3" i_vld_r $end
$var reg 1 4" i_vld_r2 $end
$var reg 1 5" is_inf_a_r $end
$var reg 1 6" is_inf_b_r $end
$var reg 1 7" is_inf_r $end
$var reg 1 8" is_nan_a_r $end
$var reg 1 9" is_nan_b_r $end
$var reg 1 :" is_nan_r $end
$var reg 1 ;" is_zero_a_r $end
$var reg 1 <" is_zero_b_r $end
$var reg 1 =" is_zero_r $end
$var reg 24 >" man_a_r [23:0] $end
$var reg 24 ?" man_b_r [23:0] $end
$var reg 23 @" man_final_r [22:0] $end
$var reg 32 A" o_res [31:0] $end
$var reg 1 B" o_res_vld $end
$var reg 1 C" overflow $end
$var reg 1 D" overflow_calc_r $end
$var reg 1 E" sign_a_r $end
$var reg 1 F" sign_b_r $end
$var reg 1 G" sign_res_r $end
$upscope $end
$upscope $end
$scope task apply_input $end
$var reg 32 H" a [31:0] $end
$var reg 32 I" b [31:0] $end
$var reg 1 J" op $end
$upscope $end
$scope task check_result $end
$var reg 32 K" expected [31:0] $end
$var reg 1 L" expected_ovf $end
$var reg 256 M" test_name [255:0] $end
$upscope $end
$upscope $end
$enddefinitions $end
#0
$dumpvars
bx M"
xL"
bx K"
xJ"
bx I"
bx H"
0G"
0F"
0E"
0D"
0C"
0B"
b0 A"
b0 @"
b0 ?"
b0 >"
0="
0<"
0;"
0:"
09"
08"
07"
06"
05"
04"
03"
b0 2"
b0 1"
b0 0"
0/"
0."
0-"
0,"
0+"
b0 *"
b0 )"
0("
0'"
b0 &"
b0 %"
b0 $"
b0 #"
1""
1!"
0~
0}
0|
0{
b0 z
b0 y
0x
b10000001 w
b10000001 v
b10000001 u
b0 t
b0 s
0r
b0 q
0p
0o
0n
0m
0l
0k
b0 j
b0 i
b0 h
b0 g
0f
0e
0d
0c
0b
0a
0`
0_
0^
0]
0\
b0 [
b0 Z
b0 Y
b0 X
b0 W
0V
0U
0T
b0 S
0R
b0 Q
b0 P
b0 O
b0 N
1M
1L
0K
0J
0I
0H
0G
b0 F
b0 E
b0 D
b0 C
b0 B
b0 A
0@
0?
0>
b0 =
0<
b0 ;
b0 :
19
08
07
b0 6
05
04
b0 3
b0 2
01
00
b0 /
0.
b0 -
1,
b0 +
0*
b0 )
b0 (
b0 '
b0 &
0%
0$
0#
0"
b0 !
$end
#5000
b1 &
1%
11
#10000
0%
01
#15000
b10 &
1%
11
#20000
0%
01
#25000
b11 &
1%
11
#30000
0%
01
#35000
b100 &
1%
11
#40000
0%
01
#45000
b101 &
1%
11
#50000
0%
01
#55000
b110 &
1%
11
#60000
0%
01
#65000
b111 &
1%
11
#70000
0%
01
#75000
b1000 &
1%
11
#80000
0%
01
#85000
b1001 &
1%
11
#90000
0%
01
#95000
b1010 &
1%
11
#100000
0%
01
#105000
b10000001 2"
1<"
1;"
1e
1d
b1011 &
0,
09
1%
11
#110000
0%
01
#115000
1f
1="
b1100 &
1%
11
#120000
0%
01
#125000
b1101 &
1%
11
#130000
0%
01
#135000
b1110 &
1%
11
#140000
0%
01
#145000
b1111 &
1%
11
#150000
0%
01
#155000
b10000 &
1%
11
#160000
0%
01
#165000
b10001 &
1%
11
#170000
0%
01
#175000
b10010 &
1%
11
#180000
0%
01
#185000
b10011 &
1%
11
#190000
0%
01
#195000
b10100 &
1%
11
#200000
0%
01
#205000
b100100000000000000000000 P
b100100000000000000000000 $"
b111000000000000000000000 N
b111000000000000000000000 #"
1U
b10000000 B
0M
1-"
b10000000 t
0""
b10000000 A
0L
b10000000 s
0!"
b11000000000100000000000000000000 ;
b11000000000100000000000000000000 F
b11000000000100000000000000000000 z
b1000000011000000000000000000000 :
b1000000011000000000000000000000 E
b1000000011000000000000000000000 y
1<
1G
b10101 &
1*
14
b11000000000100000000000000000000 )
b11000000000100000000000000000000 3
b1000000011000000000000000000000 (
b1000000011000000000000000000000 2
1%
11
0J"
b11000000000100000000000000000000 I"
b1000000011000000000000000000000 H"
#210000
0%
01
#215000
b11111100000000000000000 %"
b10100000000000000000000 W
b11111100000000000000000 &"
b111000000000000000000000 O
b100100000000000000000000 Q
b10000000 D
1R
b11111100000000000000000000000000000000000000000 *"
1."
0e
0d
b100100000000000000000000 h
b111000000000000000000000 g
b10000000 Y
b10000000 X
1o
1\
0<"
0;"
b100100000000000000000000 ?"
b11111100000000000000000000000000000000000000000 )"
b111000000000000000000000 >"
b10000000 1"
b10000000 0"
b10000001 w
1F"
13"
0<
0G
b10110 &
b1 -
b11001100101110001101010010000000101011001000000010100000101101001100100010111000110010001101010010100100100000001111010010000000110001001011100011001000110101 M"
0L"
b111111101000000000000000000000 K"
0*
04
1%
11
#220000
0%
01
#225000
b1111111 [
b101000000000000000000000 i
0="
b11111100000000000000000 @"
1G"
14"
03"
0f
b10000000 Z
b10100000000000000000000 q
1]
0\
b10111 &
1%
11
#230000
0%
01
#235000
0]
1k
10
b111111101000000000000000000000 j
b111111101000000000000000000000 /
04"
1B"
17
b11000000111111100000000000000000 A"
b11000000111111100000000000000000 6
b11000 &
1%
11
#240000
0%
01
#245000
1>
1"
b111111101000000000000000000000 =
b111111101000000000000000000000 !
b0 A"
b0 6
0B"
07
b0 j
b0 /
0k
00
b11001 &
b1 '
1%
11
#250000
0%
01
#255000
0>
0"
b0 =
b0 !
b11010 &
1%
11
#260000
0%
01
#265000
b11011 &
b1000000000000000000000000000000 I"
b111111100000000000000000000000 H"
1%
11
#270000
0%
01
#275000
b100000000000000000000000 P
b100000000000000000000000 $"
b100000000000000000000000 N
b100000000000000000000000 #"
0U
0-"
b1111111 A
b1111111 s
b1000000000000000000000000000000 ;
b1000000000000000000000000000000 F
b1000000000000000000000000000000 z
b111111100000000000000000000000 :
b111111100000000000000000000000 E
b111111100000000000000000000000 y
1<
1G
b11100 &
1*
14
b1000000000000000000000000000000 )
b1000000000000000000000000000000 3
b111111100000000000000000000000 (
b111111100000000000000000000000 2
1%
11
#280000
0%
01
#285000
b10000000000000000000000 %"
b10000000 v
b10000000000000000000000 &"
b10000000 u
b1 S
b110000000000000000000000 W
b10000000000000000000000000000000000000000000000 *"
0."
b100000000000000000000000 Q
b10000000000000000000000 O
b1 C
0R
0<
0G
b100000000000000000000000 ?"
b100000000000000000000000 >"
b10000000000000000000000000000000000000000000000 )"
b1111111 0"
b10000000 w
0F"
13"
b100000000000000000000000 h
b100000000000000000000000 g
b1111111 X
0o
1\
b11101 &
b10 -
b1100010010111000110000001000000010101100100000001100100010111000110000001000000011110100100000001100110010111000110000 M"
b1000000010000000000000000000000 K"
0*
04
1%
11
#290000
0%
01
#295000
b10000000 [
b110000000000000000000000 i
0\
b110000000000000000000000 q
1]
03"
b10000000000000000000000 @"
b10000000 2"
0G"
14"
b11110 &
1%
11
#300000
0%
01
#305000
1B"
17
b1000000010000000000000000000000 A"
b1000000010000000000000000000000 6
04"
1k
10
b1000000010000000000000000000000 j
b1000000010000000000000000000000 /
0]
b11111 &
1%
11
#310000
0%
01
#315000
b0 j
b0 /
0k
00
b0 A"
b0 6
0B"
07
1>
1"
b1000000010000000000000000000000 =
b1000000010000000000000000000000 !
b100000 &
b10 '
1%
11
#320000
0%
01
#325000
0>
0"
b0 =
b0 !
b100001 &
1%
11
#330000
0%
01
#335000
b100010 &
b1000000001000000000000000000000 I"
b11000000100100000000000000000000 H"
1%
11
#340000
0%
01
#345000
b101000000000000000000000 P
b101000000000000000000000 $"
b100100000000000000000000 N
b100100000000000000000000 #"
1T
b10000001 A
1,"
b10000001 s
b1000000001000000000000000000000 ;
b1000000001000000000000000000000 F
b1000000001000000000000000000000 z
b11000000100100000000000000000000 :
b11000000100100000000000000000000 E
b11000000100100000000000000000000 y
1<
1G
b100011 &
1*
14
b1000000001000000000000000000000 )
b1000000001000000000000000000000 3
b11000000100100000000000000000000 (
b11000000100100000000000000000000 2
1%
11
#350000
0%
01
#355000
b10110100000000000000000 %"
b10000010 v
1V
b10000000000000000000000 W
b10110100000000000000000 &"
b10000010 u
b100100000000000000000000 O
b10100000000000000000000 Q
b10000001 D
1R
b10110100000000000000000000000000000000000000000 *"
1."
b101000000000000000000000 h
b100100000000000000000000 g
b10000001 X
1n
1\
b101000000000000000000000 ?"
b100100000000000000000000 >"
b10110100000000000000000000000000000000000000000 )"
b10000001 0"
b10000010 w
1E"
13"
0<
0G
b100100 &
b11 -
b10110100110100001011100011010100100000001010110010000000110010001011100011010100100000001111010010000000101101001100100010111000110000 M"
b11000000000000000000000000000000 K"
0*
04
1%
11
#360000
0%
01
#365000
b10000000 [
b100000000000000000000000 i
b10110100000000000000000 @"
b10000010 2"
1G"
14"
03"
b10000001 Z
1p
b10000000000000000000000 q
1]
0\
b100101 &
1%
11
#370000
0%
01
#375000
0]
1k
10
b11000000000000000000000000000000 j
b11000000000000000000000000000000 /
04"
1B"
17
b11000001010110100000000000000000 A"
b11000001010110100000000000000000 6
b100110 &
1%
11
#380000
0%
01
#385000
1>
1"
b11000000000000000000000000000000 =
b11000000000000000000000000000000 !
b0 A"
b0 6
0B"
07
b0 j
b0 /
0k
00
b100111 &
b11 '
1%
11
#390000
0%
01
#395000
0>
0"
b0 =
b0 !
b101000 &
1%
11
#400000
0%
01
#405000
b101001 &
b111110100000000000000000000000 I"
b111111000000000000000000000000 H"
1%
11
#410000
0%
01
#415000
b100000000000000000000000 P
b100000000000000000000000 $"
b100000000000000000000000 N
b100000000000000000000000 #"
b1111101 B
b1111101 t
0T
b1111110 A
0,"
b1111110 s
b111110100000000000000000000000 ;
b111110100000000000000000000000 F
b111110100000000000000000000000 z
b111111000000000000000000000000 :
b111111000000000000000000000000 E
b111111000000000000000000000000 y
1<
1G
b101010 &
1*
14
b111110100000000000000000000000 )
b111110100000000000000000000000 3
b111111000000000000000000000000 (
b111111000000000000000000000000 2
1%
11
#420000
0%
01
#425000
b10000000000000000000000 %"
b1111100 v
b10000000000000000000000 &"
b1111100 u
0V
b110000000000000000000000 W
b10000000000000000000000000000000000000000000000 *"
0."
b100000000000000000000000 O
b10000000000000000000000 Q
b1111110 D
0R
0<
0G
b100000000000000000000000 ?"
b100000000000000000000000 >"
b10000000000000000000000000000000000000000000000 )"
b1111101 1"
b1111110 0"
b1111100 w
0E"
13"
b100000000000000000000000 h
b100000000000000000000000 g
b1111101 Y
b1111110 X
0n
1\
b101011 &
b100 -
b11000000101110001101010010000000101011001000000011000000101110001100100011010100100000001111010010000000110000001011100011011100110101 M"
b111111010000000000000000000000 K"
0*
04
1%
11
#430000
0%
01
#435000
b1111110 [
b110000000000000000000000 i
0\
b1111110 Z
0p
b110000000000000000000000 q
1]
03"
b10000000000000000000000 @"
b1111100 2"
0G"
14"
b101100 &
1%
11
#440000
0%
01
#445000
1B"
17
b111110010000000000000000000000 A"
b111110010000000000000000000000 6
04"
1k
10
b111111010000000000000000000000 j
b111111010000000000000000000000 /
0]
b101101 &
1%
11
#450000
0%
01
#455000
b0 j
b0 /
0k
00
b0 A"
b0 6
0B"
07
1>
1"
b111111010000000000000000000000 =
b111111010000000000000000000000 !
b101110 &
b100 '
1%
11
#460000
0%
01
#465000
0>
0"
b0 =
b0 !
b101111 &
1%
11
#470000
0%
01
#475000
b110000 &
b0 I"
b10000000000000000000000000000000 H"
1%
11
#480000
0%
01
#485000
b0 P
b0 $"
b0 N
b0 #"
b0 B
1M
b0 t
1""
1T
b0 A
1L
1,"
b0 s
1!"
b0 ;
b0 F
b0 z
b10000000000000000000000000000000 :
b10000000000000000000000000000000 E
b10000000000000000000000000000000 y
1<
1G
b110001 &
1*
14
b0 )
b0 3
b10000000000000000000000000000000 (
b10000000000000000000000000000000 2
1%
11
#490000
0%
01
#495000
b0 %"
b10000001 v
b0 S
1V
b0 W
b0 &"
b10000001 u
b0 C
b0 O
b0 Q
b0 D
1R
b0 *"
1."
1e
1d
b0 h
b0 g
b0 Y
b0 X
1n
1\
1<"
1;"
b0 ?"
b0 >"
b0 )"
b0 1"
b0 0"
b10000001 w
1E"
13"
0<
0G
b110010 &
b101 -
b1010110011000000101110001100000010000000101011001000000010110100110000001011100011000000100000001111010010000000101011001100000010111000110000 M"
b0 K"
0*
04
1%
11
#500000
0%
01
#505000
b0 [
b0 i
1="
b0 @"
b10000001 2"
1G"
14"
03"
1f
b0 Z
1p
b0 q
1]
0\
b110011 &
1%
11
#510000
0%
01
#515000
0]
1k
10
b10000000000000000000000000000000 j
b10000000000000000000000000000000 /
04"
1B"
17
b10000000000000000000000000000000 A"
b10000000000000000000000000000000 6
b110100 &
1%
11
#520000
0%
01
#525000
1>
1"
b10000000000000000000000000000000 =
b10000000000000000000000000000000 !
b0 A"
b0 6
0B"
07
b0 j
b0 /
0k
00
b110101 &
b101 '
1%
11
#530000
0%
01
#535000
0>
0"
b0 =
b0 !
b110110 &
1%
11
#540000
0%
01
#545000
b110111 &
b111111100000000000000000000000 I"
b1111111110000000000000000000000 H"
1%
11
#550000
0%
01
#555000
b100000000000000000000000 P
b100000000000000000000000 $"
b110000000000000000000000 N
1J
b110000000000000000000000 #"
1}
b1111111 B
0M
b1111111 t
0""
0T
b11111111 A
0L
0,"
b11111111 s
0!"
b111111100000000000000000000000 ;
b111111100000000000000000000000 F
b111111100000000000000000000000 z
b1111111110000000000000000000000 :
b1111111110000000000000000000000 E
b1111111110000000000000000000000 y
1<
1G
b111000 &
1*
14
b111111100000000000000000000000 )
b111111100000000000000000000000 3
b1111111110000000000000000000000 (
b1111111110000000000000000000000 2
1%
11
#560000
0%
01
#565000
b11000000000000000000000 %"
b11111111 v
b11000000000000000000000 &"
b11111111 u
b10111 S
0V
b110000000000000000000001 W
b11000000000000000000000000000000000000000000000 *"
1'"
0."
b10000000 C
b110000000000000000000000 O
b1 Q
b11111111 D
0R
0<
0G
0<"
0;"
18"
b100000000000000000000000 ?"
b11000000000000000000000000000000000000000000000 )"
b110000000000000000000000 >"
b1111111 1"
b11111111 0"
b11111111 w
0E"
13"
0e
0d
1a
b100000000000000000000000 h
b110000000000000000000000 g
b1111111 Y
b11111111 X
0n
1\
b111001 &
b110 -
b10011100110000101001110001000000010101100100000001100010010111000110000001000000011110100100000010011100110000101001110 M"
1L"
b1111111110000000000000000000000 K"
0*
04
1%
11
#570000
0%
01
#575000
1m
b11111111 [
b110000000000000000000001 i
0\
0f
1c
b11111111 Z
0p
b110000000000000000000001 q
1]
03"
0="
1:"
1D"
b11000000000000000000000 @"
b11111111 2"
0G"
14"
b111010 &
1%
11
#580000
0%
01
#585000
1B"
17
1C"
15
b1111111110000000000000000000000 A"
b1111111110000000000000000000000 6
04"
1k
10
1l
1.
b1111111110000000000000000000000 j
b1111111110000000000000000000000 /
0]
b111011 &
1%
11
#590000
0%
01
#595000
0l
0.
b0 j
b0 /
0k
00
0C"
05
b0 A"
b0 6
0B"
07
1@
1#
1>
1"
b1111111110000000000000000000000 =
b1111111110000000000000000000000 !
b111100 &
b110 '
1%
11
#600000
0%
01
#605000
0@
0#
0>
0"
b0 =
b0 !
b111101 &
1%
11
#610000
0%
01
#615000
b111110 &
b1111111100000000000000000000000 H"
1%
11
#620000
0%
01
#625000
b100000000000000000000000 N
0J
1H
b100000000000000000000000 #"
0}
1{
b1111111100000000000000000000000 :
b1111111100000000000000000000000 E
b1111111100000000000000000000000 y
1<
1G
b111111 &
1*
14
b1111111100000000000000000000000 (
b1111111100000000000000000000000 2
1%
11
#630000
0%
01
#635000
b10000000000000000000000 %"
b100000000000000000000001 W
b10000000000000000000000 &"
b100000000000000000000000 O
b10000000000000000000000000000000000000000000000 *"
1^
0a
b100000000000000000000000 g
1\
15"
08"
b100000000000000000000000 >"
b10000000000000000000000000000000000000000000000 )"
13"
0<
0G
b1000000 &
b111 -
b10101101001001011011100110011000100000001010110010000000110001001011100011000000100000001111010010000000101011010010010110111001100110 M"
b1111111100000000000000000000000 K"
0*
04
1%
11
#640000
0%
01
#645000
1m
b100000000000000000000001 i
0:"
b10000000000000000000000 @"
14"
03"
0c
b100000000000000000000001 q
1]
0\
b1000001 &
1%
11
#650000
0%
01
#655000
1`
0]
1k
10
1l
1.
b1111111100000000000000000000000 j
b1111111100000000000000000000000 /
17"
04"
1B"
17
1C"
15
b1111111100000000000000000000000 A"
b1111111100000000000000000000000 6
b1000010 &
1%
11
#660000
0%
01
#665000
1@
1#
1>
1"
b1111111100000000000000000000000 =
b1111111100000000000000000000000 !
0C"
05
b0 A"
b0 6
0B"
07
0l
0.
b0 j
b0 /
0k
00
b1000011 &
b111 '
1%
11
#670000
0%
01
#675000
0@
0#
0>
0"
b0 =
b0 !
b1000100 &
1%
11
#680000
0%
01
#685000
b1000101 &
b11111111100000000000000000000000 H"
1%
11
#690000
0%
01
#695000
1T
1,"
b11111111100000000000000000000000 :
b11111111100000000000000000000000 E
b11111111100000000000000000000000 y
1<
1G
b1000110 &
1*
14
b11111111100000000000000000000000 (
b11111111100000000000000000000000 2
1%
11
#700000
0%
01
#705000
1V
b11111111111111111111111 W
1."
1R
0<
0G
1E"
13"
1n
1\
b1000111 &
b1000 -
b10110101001001011011100110011000100000001010110010000000110001001011100011000000100000001111010010000000101101010010010110111001100110 M"
b11111111100000000000000000000000 K"
0*
04
1%
11
#710000
0%
01
#715000
b11111110 [
0m
b111111111111111111111110 i
0\
1p
b11111111111111111111111 q
1]
03"
1G"
14"
b1001000 &
1%
11
#720000
0%
01
#725000
1B"
17
1C"
15
b11111111100000000000000000000000 A"
b11111111100000000000000000000000 6
04"
1k
10
1l
1.
b11111111100000000000000000000000 j
b11111111100000000000000000000000 /
0]
b1001001 &
1%
11
#730000
0%
01
#735000
0l
0.
b0 j
b0 /
0k
00
0C"
05
b0 A"
b0 6
0B"
07
1@
1#
1>
1"
b11111111100000000000000000000000 =
b11111111100000000000000000000000 !
b1001010 &
b1000 '
1%
11
#740000
0%
01
#745000
0@
0#
0>
0"
b0 =
b0 !
b1001011 &
1%
11
#750000
0%
01
#755000
b1001100 &
b1111111100000000000000000000000 I"
b1111111100000000000000000000000 H"
1%
11
#760000
0%
01
#765000
1I
1|
b11111111 B
b11111111 t
0T
0,"
b1111111100000000000000000000000 ;
b1111111100000000000000000000000 F
b1111111100000000000000000000000 z
b1111111100000000000000000000000 :
b1111111100000000000000000000000 E
b1111111100000000000000000000000 y
1<
1G
b1001101 &
1*
14
b1111111100000000000000000000000 )
b1111111100000000000000000000000 3
b1111111100000000000000000000000 (
b1111111100000000000000000000000 2
1%
11
#770000
0%
01
#775000
0'"
b1111111 v
b0 S
0V
b1000000000000000000000000 W
b1111111 u
b0 C
b100000000000000000000000 O
b100000000000000000000000 Q
0R
0."
1_
b11111111 Y
0n
1\
16"
b11111111 1"
b1111111 w
0E"
13"
0<
0G
b1001110 &
b1001 -
b1010110100100101101110011001100010000000101011001000000010101101001001011011100110011000100000001111010010000000101011010010010110111001100110 M"
b1111111100000000000000000000000 K"
0*
04
1%
11
#780000
0%
01
#785000
b0 [
b100000000000000000000000 i
0D"
b1111111 2"
0G"
14"
03"
0p
b1000000000000000000000000 q
1]
0\
b1001111 &
1%
11
#790000
0%
01
#795000
0]
1k
10
1l
1.
b1111111100000000000000000000000 j
b1111111100000000000000000000000 /
04"
1B"
17
1C"
15
b1111111100000000000000000000000 A"
b1111111100000000000000000000000 6
b1010000 &
1%
11
#800000
0%
01
#805000
1@
1#
1>
1"
b1111111100000000000000000000000 =
b1111111100000000000000000000000 !
0C"
05
b0 A"
b0 6
0B"
07
0l
0.
b0 j
b0 /
0k
00
b1010001 &
b1001 '
1%
11
#810000
0%
01
#815000
0@
0#
0>
0"
b0 =
b0 !
b1010010 &
1%
11
#820000
0%
01
#825000
b1010011 &
b11111111100000000000000000000000 I"
b11111111100000000000000000000000 H"
1%
11
#830000
0%
01
#835000
1U
1-"
1T
1,"
b11111111100000000000000000000000 ;
b11111111100000000000000000000000 F
b11111111100000000000000000000000 z
b11111111100000000000000000000000 :
b11111111100000000000000000000000 E
b11111111100000000000000000000000 y
1<
1G
b1010100 &
1*
14
b11111111100000000000000000000000 )
b11111111100000000000000000000000 3
b11111111100000000000000000000000 (
b11111111100000000000000000000000 2
1%
11
#840000
0%
01
#845000
1V
0<
0G
1F"
1E"
13"
1o
1n
1\
b1010101 &
b1010 -
b1011010100100101101110011001100010000000101011001000000010110101001001011011100110011000100000001111010010000000101101010010010110111001100110 M"
b11111111100000000000000000000000 K"
0*
04
1%
11
#850000
0%
01
#855000
0\
1p
1]
03"
14"
b1010110 &
1%
11
#860000
0%
01
#865000
1B"
17
1C"
15
b1111111100000000000000000000000 A"
b1111111100000000000000000000000 6
04"
1k
10
1l
1.
b11111111100000000000000000000000 j
b11111111100000000000000000000000 /
0]
b1010111 &
1%
11
#870000
0%
01
#875000
0l
0.
b0 j
b0 /
0k
00
0C"
05
b0 A"
b0 6
0B"
07
1@
1#
1>
1"
b11111111100000000000000000000000 =
b11111111100000000000000000000000 !
b1011000 &
b1010 '
1%
11
#880000
0%
01
#885000
0@
0#
0>
0"
b0 =
b0 !
b1011001 &
1%
11
#890000
0%
01
#895000
b1011010 &
b1111111100000000000000000000000 H"
1%
11
#900000
0%
01
#905000
0T
0,"
b1111111100000000000000000000000 :
b1111111100000000000000000000000 E
b1111111100000000000000000000000 y
1<
1G
b1011011 &
1*
14
b1111111100000000000000000000000 (
b1111111100000000000000000000000 2
1%
11
#910000
0%
01
#915000
0V
b0 W
1R
1."
0n
1\
0E"
13"
0<
0G
b1011100 &
b1011 -
b10101101001001011011100110011000100000001010110010000000101101010010010110111001100110001000000011110100100000010011100110000101001110 M"
b1111111110000000000000000000000 K"
0*
04
1%
11
#920000
0%
01
#925000
b0 [
b0 i
1G"
14"
03"
1c
0p
b0 q
1]
0\
b1011101 &
1%
11
#930000
0%
01
#935000
0`
0]
1k
10
1l
1.
b1111111110000000000000000000000 j
b1111111110000000000000000000000 /
04"
1B"
17
1C"
15
b11111111100000000000000000000000 A"
b11111111100000000000000000000000 6
b1011110 &
1%
11
#940000
0%
01
#945000
1@
1#
1>
1"
b1111111110000000000000000000000 =
b1111111110000000000000000000000 !
0C"
05
b0 A"
b0 6
0B"
07
0l
0.
b0 j
b0 /
0k
00
b1011111 &
b1011 '
1%
11
#950000
0%
01
#955000
0@
0#
0>
0"
b0 =
b0 !
b1100000 &
1%
11
#960000
0%
01
#965000
b1100001 &
b1111111100000000000000000000000 I"
b11111111100000000000000000000000 H"
1%
11
#970000
0%
01
#975000
0U
0-"
1T
1,"
b1111111100000000000000000000000 ;
b1111111100000000000000000000000 F
b1111111100000000000000000000000 z
b11111111100000000000000000000000 :
b11111111100000000000000000000000 E
b11111111100000000000000000000000 y
1<
1G
b1100010 &
1*
14
b1111111100000000000000000000000 )
b1111111100000000000000000000000 3
b11111111100000000000000000000000 (
b11111111100000000000000000000000 2
1%
11
#980000
0%
01
#985000
1V
0<
0G
0F"
1E"
13"
0o
1n
1\
b1100011 &
b1100 -
b10110101001001011011100110011000100000001010110010000000101011010010010110111001100110001000000011110100100000010011100110000101001110 M"
0*
04
1%
11
#990000
0%
01
#995000
0\
1p
1]
03"
14"
b1100100 &
1%
11
#1000000
0%
01
#1005000
1B"
17
1C"
15
b11111111100000000000000000000000 A"
b11111111100000000000000000000000 6
04"
1k
10
1l
1.
b1111111110000000000000000000000 j
b1111111110000000000000000000000 /
0]
b1100101 &
1%
11
#1010000
0%
01
#1015000
0l
0.
b0 j
b0 /
0k
00
0C"
05
b0 A"
b0 6
0B"
07
1@
1#
1>
1"
b1111111110000000000000000000000 =
b1111111110000000000000000000000 !
b1100110 &
b1100 '
1%
11
#1020000
0%
01
#1025000
0@
0#
0>
0"
b0 =
b0 !
b1100111 &
1%
11
#1030000
0%
01
#1035000
b1101000 &
1%
11
#1040000
0%
01
#1045000
b1101001 &
1%
11
#1050000
0%
01
#1055000
b1101010 &
1%
11
#1060000
0%
01
#1065000
b1101011 &
1%
11
#1070000
0%
01
#1075000
b1101100 &
1%
11
#1080000
0%
01
#1085000
b1101101 &
1%
11
#1090000
0%
01
#1095000
b1101110 &
1%
11
#1100000
0%
01
#1105000
b1101111 &
1%
11
#1110000
0%
01
#1115000
b1110000 &
1%
11
#1120000
0%
01
#1125000
b1110001 &
1%
11
#1130000
0%
01
#1135000
1?
b1110010 &
1J"
b1000000000000000000000000000000 I"
b1000000011000000000000000000000 H"
1$
18
1%
11
#1140000
0%
01
#1145000
0I
0|
b111000000000000000000000 N
0H
b111000000000000000000000 #"
0{
b10000000 B
b10000000 t
0T
b10000000 A
0,"
b10000000 s
b1000000000000000000000000000000 ;
b1000000000000000000000000000000 F
b1000000000000000000000000000000 z
b1000000011000000000000000000000 :
b1000000011000000000000000000000 E
b1000000011000000000000000000000 y
1<
1G
b1110011 &
1*
14
b1000000000000000000000000000000 )
b1000000000000000000000000000000 3
b1000000011000000000000000000000 (
b1000000011000000000000000000000 2
1%
11
#1150000
0%
01
